<?xml version="1.0" encoding="utf-8"?>
<!-- Generator: Adobe Illustrator 21.0.2, SVG Export Plug-In . SVG Version: 6.00 Build 0)  -->
<svg version="1.1" id="Layer_1" xmlns="http://www.w3.org/2000/svg" xmlns:xlink="http://www.w3.org/1999/xlink" x="0px" y="0px"
	 viewBox="0 0 600.9 158.7" style="enable-background:new 0 0 600.9 158.7;" xml:space="preserve">
<style type="text/css">
	.st0{fill:#289AD5;}
	.st1{fill:#1D1E1C;}
	.st2{fill:#ED2024;}
</style>
<g>
	<g>
		<path class="st0" d="M127.2,60c-6-17.2-18.3-32.2-32.8-43.1c-3.9-2.9-8-5.6-12.4-8c0.6,0.1,1.2,0.1,1.8,0.2c2.6,0.3,2.6-3.8,0-4.1
			c-3.8-0.5-8.7-0.3-14-0.3c-0.6,0-1.1,0.1-1.7,0.2c-5.7-1.3-11.5-1.7-17.3-1C40.4,5.2,31,10.2,23.3,17.3C-3.4,41.6-3,88.3,19,115.4
			c5.3,6.5,12.2,11.6,20,14.8c8.6,3.5,18,3.9,27.1,2.7c1-0.1,2-0.3,3-0.5c9.4,7.5,18.6,15.1,28.1,22.4c1.3,1,3.1-0.4,3.1-1.8
			c0-8.9,0-17.9-0.4-26.8c7.9-3.7,15-9.1,20.4-16C131.7,95.8,133.1,77,127.2,60z M64,9.6c2.6-0.1,5.1,0.1,7.6,0.5
			C81.7,13.6,91,20.4,98,28.4c13.3,15.2,20,37.4,14.2,57.1c-1,3.6-2.5,6.9-4.4,10c0.9-6.1,0.7-12.4-0.5-18.5
			C107,57,96.9,36.2,80.1,25.1c-7.6-5-16.6-7.3-25.6-6.4c2.9-0.9,5.8-1.5,8.9-1.9c0.6-0.1,0.7-1.1,0-1c-5.4,0.7-10.6,2.1-15.4,4.2
			c-5.3,1.5-10.2,4.2-14.7,7.6c1.3-1.7,2.7-3.2,4.2-4.7C44.9,15.6,54.1,11.4,64,9.6z M103.3,95.5c-1.9,5-4.7,9.6-8.2,13.6
			c-1.2,0.9-2.5,1.7-3.9,2.5c-0.1-0.4-0.2-0.7-0.2-1.1c-0.5-2.6-4.5-1.5-4,1.1c0.1,0.7,0.3,1.3,0.5,2c-1.2,0.6-2.5,1.1-3.7,1.6
			c-4.4,1.7-9.1,2.8-13.9,3.4c-1-1.4-1.9-2.9-2.7-4.4c-1.2-2.4-4.8-0.3-3.6,2.1c0.5,0.9,1,1.8,1.6,2.7c-1.3,0.1-2.6,0.1-3.8,0.1
			c-3.6-1-7.1-2.4-10.4-4.1C33.2,105.2,22.7,84,21.8,64.3c-0.1-3-0.1-6,0.3-8.9c0.4-0.7,0.7-1.4,1.1-2.1
			c4.8-8.8,11.5-17.1,21.5-19.9c28.1-8,51.8,16.1,57.9,41.7c1.5,6.3,2,12.9,1.1,19.3C103.5,94.8,103.4,95.1,103.3,95.5z M88.6,117.5
			c0.1,0.3,0.2,0.5,0.3,0.8c-1.2,0.4-2.5,0.7-3.7,1c0.5-0.3,1-0.7,1.5-1C87.3,118.1,87.9,117.8,88.6,117.5z M82.5,124
			c-1.9,0.9-3.8,1.7-5.8,2.3c-0.5-0.5-1.1-1.1-1.6-1.7C77.6,124.7,80,124.4,82.5,124z M72.3,127.7c-0.7,0.2-1.3,0.3-2,0.5
			c-0.9-0.7-1.8-1.4-2.7-2.2c0.8-0.1,1.5-0.2,2.3-0.4c0.1,0,0.3-0.1,0.4-0.1C70.9,126.3,71.6,127,72.3,127.7z M27.8,103.5
			c-0.4-0.6-0.9-1.3-1.3-1.9c-6.6-10.5-9.7-23-9-35.3c0.1-0.3,0.2-0.6,0.3-0.9c0.3,4.7,1,9.3,2.2,13.9c4.2,15.3,13.5,29.4,26.8,37.8
			c-2.3-0.6-4.5-1.3-6.7-2.1c-2.2-1.7-4.3-3.6-6.3-5.4C31.8,107.6,29.7,105.6,27.8,103.5z M16.4,70.6c0.1,5.9,1.1,11.9,2.9,17.5
			c-1.6-4.3-2.8-8.8-3.5-13.4C15.8,73.3,16.1,71.9,16.4,70.6z M51.5,122.2c1.8,0.3,3.6,0.5,5.4,0.6c0.1,0.1,0.1,0.1,0.2,0.2
			c0.9,0.7,1.9,1.5,2.8,2.2c-0.1,0-0.1,0-0.2,0C57,124.5,54.2,123.5,51.5,122.2z M65,124c1.5,0.3,2.9,0.4,4.4,0.6c0,0,0,0,0.1,0.1
			c-1,0.2-2,0.4-3.1,0.5C65.9,124.7,65.5,124.3,65,124z M85.1,38.8C74.5,30,61,26,47.4,28.5c-4,0.7-7.9,1.9-11.4,4
			c-4.3,2.6-7.8,6.3-10.9,10.3c-0.1,0.2-0.3,0.4-0.4,0.5c0.5-1.4,1-2.9,1.7-4.2c5.3-7.9,12.8-14,21.4-17.8c2.8-0.9,5.6-1.4,8.5-1.6
			c23.8-1.8,41.5,20.5,47.5,41.2c1,3.4,1.7,6.8,2.1,10.4C102.2,58.5,94.7,46.8,85.1,38.8z M28.9,34.2c0.7-1.2,1.4-2.3,2.1-3.5
			c2.3-2,4.9-3.9,7.6-5.4C35,27.8,31.7,30.8,28.9,34.2z M18.2,53.9c-1,2.1-2,4.2-2.8,6.3c0.6-5.3,2.2-10.5,4.6-15.4
			C19.1,47.8,18.5,50.8,18.2,53.9z M21.1,95c-2.4-3.7-4.2-7.7-5.1-11.9c-0.3-1.3-0.4-2.7-0.5-4.1C16.8,84.6,18.7,90,21.1,95z
			 M61,129.2c0.9-0.4,1.4-1.4,1.3-2.2c0.9,0.7,1.7,1.4,2.6,2c-1.1,0.1-2.3,0.2-3.4,0.3C61.2,129.3,61.1,129.3,61,129.2z M79.9,129.5
			c3.8-1.5,7.4-3.3,10.7-5.6c0.5,1.5,0.9,2.9,1.4,4.4c-3.6,1.1-7.2,1.9-10.9,2.3C80.7,130.2,80.3,129.8,79.9,129.5z M92.3,115.6
			c1.2-0.6,2.4-1.3,3.5-2.1c-0.9,1.1-1.8,2.2-2.8,3.1c-0.1,0-0.2,0.1-0.3,0.1C92.6,116.4,92.4,116,92.3,115.6z M94.1,121.2
			c0.4-0.3,0.7-0.6,1.1-1c0.1,0,0.2-0.1,0.3-0.1c0.1,2.3,0.3,4.5,0.4,6.8C95.3,124.9,94.7,123.1,94.1,121.2z M102.8,98.7
			c-0.4,1.7-0.9,3.5-1.6,5.1c-1,1-2,1.9-3,2.7C100,104.1,101.5,101.5,102.8,98.7z M104.8,106.2c0.6-0.7,1.3-1.4,1.9-2.1
			c5.4-6.4,8.8-13.9,10.4-21.8c-0.3,4.6-1.3,9.2-3.2,13.5c-2.5,5.9-6.5,11-11.4,15C103.4,109.3,104.2,107.8,104.8,106.2z M8.9,50.7
			c4.2-18.9,17.6-36.2,36.8-41.6c1.4-0.4,2.9-0.7,4.3-1c-7,2.4-13.5,6.3-19.1,10.9C19.5,28.4,11.3,42.2,7.8,56.8
			C8.1,54.8,8.5,52.7,8.9,50.7z M25.3,30.5c1.1-1.4,2.3-2.7,3.5-3.9c-3,4.1-5.4,8.6-7.2,13.3c-4.9,7.3-7.2,15.5-7.5,24
			c-0.9,3-1.7,6-2.1,9c-0.9,5.9-0.4,11.6,1.9,17.1c2.1,5,5.2,9.5,8.6,13.6c-4.2-4.3-7.6-9.6-9.8-15.7C6,68.5,12.8,45.9,25.3,30.5z
			 M56.3,129.5c-20.6-0.2-34.6-13.2-42.3-30.1c3.7,5.6,8.5,10.4,14.3,14.2c3.2,2.1,6.7,3.8,10.3,5.2c1.2,0.9,2.4,1.8,3.7,2.6
			c0.4,0.2,0.7,0.5,1.1,0.7c0,0,0,0,0,0c4.4,3.3,9.4,5.7,14.6,7.4C57.4,129.5,56.9,129.5,56.3,129.5z M75,132c0.5,0,1,0,1.5,0
			c5.6,5.3,11.8,10.2,18.6,13.7c0.3,0.2,0.7,0.3,1,0.3c0,1,0,2,0,3C89.1,143.3,82.1,137.6,75,132z M94.2,140.4
			c-4.3-2.5-8.3-5.6-12.1-8.9c3.4-0.4,6.8-1.2,10.1-2.2C93.3,132.9,94.1,136.6,94.2,140.4z M107.3,121c-2.4,1.6-4.9,3-7.5,4.3
			c-0.1-2.4-0.2-4.8-0.4-7.2c1.5-0.9,3-1.9,4.5-3c6.7-5,11.6-11.7,14.6-19.5c3.4-9,3.4-18.6,2-28c-1.5-10.1-5.3-20-10.1-28.9
			c-3.6-6.7-8.1-13.1-13.5-18.6c1.2,1,2.4,2,3.6,3.1c13.8,12.3,25.1,28.8,28.5,47.2C132.5,90.2,123.9,109.7,107.3,121z"/>
	</g>
	<g>
		<g>
			<path class="st0" d="M190,113.9l-0.1,0l-6.7,18.4h-3.4l-6.6-18.4l-0.1,0l0.5,10.9v3.9l2.7,0.5v3H166v-3l2.6-0.5v-17.9l-2.6-0.5
				v-3h2.6h6.5l6.3,18.3h0.1l6.4-18.3h9.2v3l-2.7,0.5v17.9l2.7,0.5v3h-10.3v-3l2.6-0.5v-3.9L190,113.9z"/>
			<path class="st0" d="M198.9,129.3l2.4-0.5v-11.5l-2.7-0.5v-3h7.7v15l2.4,0.5v3h-9.8V129.3z M206.3,109.4h-5v-3.7h5V109.4z"/>
			<path class="st0" d="M209.8,108.7v-3h7.7v23.2l2.4,0.5v3h-9.8v-3l2.4-0.5v-19.6L209.8,108.7z"/>
			<path class="st0" d="M233.3,132.3c-0.1-0.3-0.3-0.6-0.4-0.9c-0.1-0.3-0.2-0.7-0.2-1c-0.6,0.7-1.3,1.2-2.2,1.7
				c-0.8,0.4-1.8,0.6-2.9,0.6c-1.8,0-3.3-0.5-4.3-1.5s-1.6-2.3-1.6-4c0-1.7,0.7-3.1,2.1-4c1.4-0.9,3.4-1.4,6.1-1.4h2.5v-1.8
				c0-0.9-0.3-1.6-0.8-2.1c-0.5-0.5-1.3-0.7-2.3-0.7c-0.6,0-1.1,0.1-1.5,0.2s-0.8,0.3-1.1,0.5l-0.3,2h-3.8l0-4.1
				c0.9-0.6,2-1.1,3.1-1.6c1.2-0.4,2.5-0.6,3.9-0.6c2.3,0,4.2,0.6,5.6,1.7s2.1,2.7,2.1,4.8v7.6c0,0.3,0,0.6,0,0.8
				c0,0.3,0,0.5,0.1,0.7l1.5,0.2v3H233.3z M228.9,129c0.8,0,1.4-0.2,2.1-0.5c0.6-0.3,1.1-0.7,1.4-1.2v-2.8h-2.5
				c-1.1,0-1.9,0.2-2.4,0.7c-0.5,0.5-0.8,1.1-0.8,1.8c0,0.6,0.2,1.1,0.6,1.5C227.7,128.8,228.2,129,228.9,129z"/>
			<path class="st0" d="M240.4,129.3l2.4-0.5v-11.5l-2.6-0.5v-3h7.3l0.2,2.6c0.6-0.9,1.4-1.7,2.3-2.2s1.9-0.8,3-0.8
				c1.9,0,3.3,0.6,4.4,1.8c1,1.2,1.6,3,1.6,5.5v8l2.4,0.5v3h-9.5v-3l2.1-0.5v-8c0-1.2-0.3-2.1-0.8-2.6c-0.5-0.5-1.3-0.8-2.3-0.8
				c-0.7,0-1.3,0.1-1.8,0.4c-0.5,0.3-1,0.6-1.3,1.1v9.9l2,0.5v3h-9.4V129.3z"/>
			<path class="st0" d="M262.8,122.9c0-2.8,0.8-5,2.3-6.8s3.7-2.6,6.4-2.6c2.7,0,4.9,0.9,6.4,2.6s2.3,4,2.3,6.8v0.4
				c0,2.8-0.8,5-2.3,6.8s-3.7,2.6-6.4,2.6c-2.7,0-4.9-0.9-6.4-2.6s-2.3-4-2.3-6.8V122.9z M267.8,123.2c0,1.7,0.3,3,0.9,4.1
				s1.5,1.5,2.9,1.5c1.3,0,2.2-0.5,2.8-1.5s0.9-2.4,0.9-4.1v-0.4c0-1.6-0.3-3-0.9-4c-0.6-1-1.6-1.6-2.9-1.6c-1.3,0-2.2,0.5-2.8,1.6
				c-0.6,1-0.9,2.4-0.9,4V123.2z"/>
		</g>
		<g>
			<path class="st1" d="M188.9,75.8c-0.3-0.6-0.5-1.2-0.7-1.9s-0.4-1.3-0.5-2c-1.2,1.4-2.6,2.5-4.3,3.3c-1.7,0.8-3.6,1.3-5.8,1.3
				c-3.6,0-6.5-1-8.6-3c-2.1-2-3.2-4.7-3.2-8c0-3.5,1.4-6.1,4.2-8c2.8-1.9,6.9-2.8,12.2-2.8h5.1V51c0-1.8-0.5-3.2-1.5-4.1
				c-1-1-2.5-1.5-4.5-1.5c-1.1,0-2.2,0.1-3,0.4c-0.9,0.3-1.6,0.6-2.2,0.9l-0.6,4h-7.5l0-8.2c1.8-1.2,3.9-2.3,6.3-3.1
				c2.4-0.8,4.9-1.3,7.7-1.3c4.6,0,8.3,1.1,11.2,3.4c2.9,2.2,4.3,5.4,4.3,9.6v15.3c0,0.6,0,1.1,0,1.6s0.1,1,0.1,1.4l3,0.4v6H188.9z
				 M180.3,69.2c1.5,0,2.9-0.3,4.1-1s2.2-1.5,2.9-2.4v-5.6h-5.1c-2.1,0-3.7,0.5-4.8,1.5s-1.6,2.2-1.6,3.6c0,1.3,0.4,2.2,1.2,2.9
				C177.7,68.8,178.9,69.2,180.3,69.2z"/>
			<path class="st1" d="M204.5,57.6c0-5.8,1.3-10.5,3.8-14.1c2.5-3.6,6.1-5.4,10.7-5.4c2.1,0,3.9,0.5,5.5,1.4s2.9,2.2,4,3.9l0.7-4.6
				h8.7v35.9c0,4.9-1.5,8.8-4.6,11.7c-3.1,2.9-7.3,4.4-12.6,4.4c-1.9,0-3.9-0.3-5.9-0.8c-2.1-0.5-4-1.2-5.8-2.1l1.8-7
				c1.6,0.7,3.2,1.2,4.8,1.6c1.6,0.4,3.3,0.6,5.1,0.6c2.4,0,4.3-0.7,5.5-2.2c1.2-1.5,1.8-3.5,1.8-6.2v-2.4c-1.1,1.4-2.4,2.5-3.9,3.2
				c-1.5,0.7-3.2,1.1-5.1,1.1c-4.5,0-8.1-1.7-10.6-5s-3.8-7.7-3.8-13.2V57.6z M214.4,58.4c0,3.2,0.5,5.8,1.6,7.6s2.9,2.8,5.3,2.8
				c1.5,0,2.8-0.3,3.9-0.8c1.1-0.6,1.9-1.4,2.5-2.4V49.4c-0.6-1.1-1.5-2-2.5-2.6c-1.1-0.6-2.3-0.9-3.8-0.9c-2.4,0-4.2,1.1-5.3,3.2
				c-1.1,2.2-1.7,5-1.7,8.5V58.4z"/>
			<path class="st1" d="M243.5,69.8l4.8-1V45.9l-5.3-1v-6h15.3v30l4.8,1v6h-19.6V69.8z M258.3,30h-10v-7.5h10V30z"/>
			<path class="st1" d="M265.3,28.5v-6h15.3v46.3l4.8,1v6h-19.6v-6l4.8-1V29.5L265.3,28.5z"/>
			<path class="st1" d="M306.4,76.5c-5.3,0-9.6-1.7-12.8-5.1c-3.2-3.4-4.8-7.8-4.8-13V57c0-5.5,1.5-10,4.5-13.6s7.1-5.3,12.2-5.3
				c5,0,8.9,1.5,11.6,4.5c2.8,3,4.1,7.1,4.1,12.2v5.4h-22.1l-0.1,0.2c0.2,2.4,1,4.4,2.4,6s3.4,2.4,5.9,2.4c2.2,0,4-0.2,5.5-0.7
				c1.5-0.4,3.1-1.1,4.8-2.1l2.7,6.2c-1.5,1.2-3.5,2.2-5.9,3C312.1,76.1,309.4,76.5,306.4,76.5z M305.5,45.9c-1.8,0-3.3,0.7-4.4,2.1
				s-1.7,3.3-2,5.6l0.1,0.2h12.2v-0.9c0-2.1-0.5-3.8-1.5-5.1S307.5,45.9,305.5,45.9z"/>
			<path class="st1" d="M358.9,44.9l-3.5,0.6l4.9,16.5l0.6,3.5h0.2l0.7-3.5l4.8-16.5l-3.6-0.7v-6h16.8v6l-3.2,0.5l-10.9,30.5h-9.5
				l-10.9-30.5l-3.2-0.5v-6h16.8V44.9z"/>
			<path class="st1" d="M400.3,76.5c-5.3,0-9.6-1.7-12.8-5.1c-3.2-3.4-4.8-7.8-4.8-13V57c0-5.5,1.5-10,4.5-13.6s7.1-5.3,12.2-5.3
				c5,0,8.9,1.5,11.6,4.5c2.8,3,4.1,7.1,4.1,12.2v5.4h-22.1l-0.1,0.2c0.2,2.4,1,4.4,2.4,6s3.4,2.4,5.9,2.4c2.2,0,4-0.2,5.5-0.7
				c1.5-0.4,3.1-1.1,4.8-2.1l2.7,6.2c-1.5,1.2-3.5,2.2-5.9,3C406,76.1,403.3,76.5,400.3,76.5z M399.4,45.9c-1.8,0-3.3,0.7-4.4,2.1
				c-1.1,1.4-1.7,3.3-2,5.6l0.1,0.2h12.2v-0.9c0-2.1-0.5-3.8-1.5-5.1S401.4,45.9,399.4,45.9z"/>
			<path class="st1" d="M419.4,69.8l4.8-1V45.9l-5.3-1v-6h14.6l0.4,5.3c1.2-1.9,2.7-3.4,4.5-4.4c1.8-1,3.8-1.6,6.1-1.6
				c3.7,0,6.7,1.2,8.8,3.5c2.1,2.3,3.1,6,3.1,11v16.1l4.8,1v6h-19.1v-6l4.3-1V52.8c0-2.5-0.5-4.2-1.5-5.3s-2.5-1.6-4.5-1.6
				c-1.3,0-2.5,0.3-3.6,0.8c-1,0.5-1.9,1.3-2.6,2.3v19.8l4,1v6h-18.8V69.8z"/>
			<path class="st1" d="M479.1,29.8v9.1h6.5v7h-6.5v18.8c0,1.4,0.3,2.5,0.9,3.1s1.4,0.9,2.4,0.9c0.7,0,1.3,0,1.8-0.1
				c0.5-0.1,1.1-0.2,1.7-0.3l0.9,7.2c-1.1,0.3-2.2,0.6-3.3,0.8c-1.1,0.2-2.3,0.3-3.6,0.3c-3.4,0-6.1-0.9-7.9-2.8
				c-1.9-1.9-2.8-4.9-2.8-9V45.9h-5.4v-7h5.4v-9.1H479.1z"/>
			<path class="st1" d="M516.3,71.1c-1.2,1.7-2.6,3.1-4.4,4c-1.7,0.9-3.7,1.4-6,1.4c-3.9,0-7-1.2-9.2-3.7c-2.2-2.5-3.3-6.4-3.3-11.6
				V45.9l-4.1-1v-6h4.1h10v22.4c0,2.7,0.4,4.6,1.3,5.8c0.9,1.2,2.2,1.8,4,1.8c1.6,0,2.9-0.3,4.1-0.8c1.2-0.5,2.1-1.2,2.8-2.2V45.9
				l-4.4-1v-6h4.4h10v30l4.5,1v6H517L516.3,71.1z"/>
			<path class="st1" d="M534.9,69.8l4.8-1V45.9l-5.3-1v-6H549l0.4,5.4c0.9-1.9,2-3.4,3.3-4.5c1.4-1.1,3-1.6,4.8-1.6
				c0.5,0,1.1,0,1.7,0.1c0.6,0.1,1.1,0.2,1.5,0.3l-1.1,9.1l-4.1-0.1c-1.5,0-2.7,0.3-3.6,0.9s-1.7,1.4-2.2,2.4v18l4.8,1v6h-19.6V69.8
				z"/>
			<path class="st1" d="M580.7,76.5c-5.3,0-9.6-1.7-12.8-5.1c-3.2-3.4-4.8-7.8-4.8-13V57c0-5.5,1.5-10,4.5-13.6s7.1-5.3,12.2-5.3
				c5,0,8.9,1.5,11.6,4.5c2.8,3,4.1,7.1,4.1,12.2v5.4h-22.1l-0.1,0.2c0.2,2.4,1,4.4,2.4,6s3.4,2.4,5.9,2.4c2.2,0,4-0.2,5.5-0.7
				c1.5-0.4,3.1-1.1,4.8-2.1l2.7,6.2c-1.5,1.2-3.5,2.2-5.9,3C586.4,76.1,583.7,76.5,580.7,76.5z M579.8,45.9c-1.8,0-3.3,0.7-4.4,2.1
				c-1.1,1.4-1.7,3.3-2,5.6l0.1,0.2h12.2v-0.9c0-2.1-0.5-3.8-1.5-5.1S581.8,45.9,579.8,45.9z"/>
		</g>
	</g>
</g>
</svg>
